<?xml version="1.0" encoding="UTF-8" standalone="no"?>
<!-- Created with Inkscape (http://www.inkscape.org/) -->
<svg
   xmlns:dc="http://purl.org/dc/elements/1.1/"
   xmlns:cc="http://creativecommons.org/ns#"
   xmlns:rdf="http://www.w3.org/1999/02/22-rdf-syntax-ns#"
   xmlns:svg="http://www.w3.org/2000/svg"
   xmlns="http://www.w3.org/2000/svg"
   xmlns:sodipodi="http://sodipodi.sourceforge.net/DTD/sodipodi-0.dtd"
   xmlns:inkscape="http://www.inkscape.org/namespaces/inkscape"
   width="200"
   height="300"
   id="svg2"
   sodipodi:version="0.32"
   inkscape:version="0.46"
   version="1.0"
   sodipodi:docname="bi-ve-3-ba.svg"
   inkscape:output_extension="org.inkscape.output.svg.inkscape"
   inkscape:export-filename="C:\Users\Théophile\Documents\Cartes set\bi-ve-3-ba.png"
   inkscape:export-xdpi="90"
   inkscape:export-ydpi="90">
  <defs
     id="defs4">
    <pattern
       inkscape:stockid="Stripes 1:1"
       id="Strips1_1"
       patternTransform="translate(0,0) scale(10,10)"
       height="1"
       width="2"
       patternUnits="userSpaceOnUse"
       inkscape:collect="always">
      <rect
         id="rect3894"
         height="2"
         width="1"
         y="-0.5"
         x="0"
         style="fill:#008000;stroke:none" />
    </pattern>
    <inkscape:perspective
       sodipodi:type="inkscape:persp3d"
       inkscape:vp_x="0 : 526.18109 : 1"
       inkscape:vp_y="0 : 1000 : 0"
       inkscape:vp_z="744.09448 : 526.18109 : 1"
       inkscape:persp3d-origin="372.04724 : 350.78739 : 1"
       id="perspective10" />
    <inkscape:perspective
       id="perspective3493"
       inkscape:persp3d-origin="372.04724 : 350.78739 : 1"
       inkscape:vp_z="744.09448 : 526.18109 : 1"
       inkscape:vp_y="0 : 1000 : 0"
       inkscape:vp_x="0 : 526.18109 : 1"
       sodipodi:type="inkscape:persp3d" />
  </defs>
  <sodipodi:namedview
     id="base"
     pagecolor="#ffffff"
     bordercolor="#666666"
     borderopacity="1.0"
     inkscape:pageopacity="0.0"
     inkscape:pageshadow="2"
     inkscape:zoom="2"
     inkscape:cx="193.79644"
     inkscape:cy="150.81343"
     inkscape:document-units="px"
     inkscape:current-layer="layer1"
     showgrid="true"
     inkscape:window-width="724"
     inkscape:window-height="669"
     inkscape:window-x="259"
     inkscape:window-y="14"
     showguides="true"
     inkscape:guide-bbox="true"
     inkscape:snap-global="true">
    <inkscape:grid
       type="xygrid"
       id="grid2403"
       visible="true"
       enabled="true" />
  </sodipodi:namedview>
  <metadata
     id="metadata7">
    <rdf:RDF>
      <cc:Work
         rdf:about="">
        <dc:format>image/svg+xml</dc:format>
        <dc:type
           rdf:resource="http://purl.org/dc/dcmitype/StillImage" />
      </cc:Work>
    </rdf:RDF>
  </metadata>
  <g
     inkscape:label="Calque 1"
     inkscape:groupmode="layer"
     id="layer1">
    <path
       style="fill:url(#Strips1_1);fill-rule:evenodd;stroke:#008000;stroke-width:2;stroke-linecap:butt;stroke-linejoin:miter;stroke-opacity:1;stroke-miterlimit:4;stroke-dasharray:none;fill-opacity:1.0"
       d="M 50.304725,86.984035 C 70.100143,77.438105 85.99784,78.319635 100.10014,83.103885 C 113.89066,87.782365 131.01791,96.425878 149.65322,86.984035 C 169.32116,77.018995 169.55109,27.970132 149.65322,38.193669 C 130.43199,48.069546 113.9206,47.678438 100.10014,43.143417 C 85.868808,38.473574 69.795278,28.316076 50.304725,38.193669 C 30.100143,48.433124 30.505735,97.70008 50.304725,86.984035 z"
       id="path3399"
       sodipodi:nodetypes="csssssc" />
    <path
       style="fill:url(#Strips1_1);fill-rule:evenodd;stroke:#008000;stroke-width:2;stroke-linecap:butt;stroke-linejoin:miter;stroke-opacity:1;stroke-miterlimit:4;stroke-dasharray:none;fill-opacity:1.0"
       d="M 50.304725,174.44404 C 70.100143,164.89811 85.99784,165.77964 100.10014,170.56389 C 113.89066,175.24237 131.01791,183.88588 149.65323,174.44404 C 169.32117,164.479 169.5511,115.43014 149.65323,125.65367 C 130.43199,135.52955 113.9206,135.13844 100.10014,130.60342 C 85.868808,125.93358 69.795278,115.77608 50.304725,125.65367 C 30.100143,135.89313 30.505735,185.16008 50.304725,174.44404 z"
       id="path3401"
       sodipodi:nodetypes="csssssc" />
    <path
       style="fill:url(#Strips1_1);fill-rule:evenodd;stroke:#008000;stroke-width:2;stroke-linecap:butt;stroke-linejoin:miter;stroke-opacity:1;stroke-miterlimit:4;stroke-dasharray:none;fill-opacity:1.0"
       d="M 50.304725,261.84404 C 70.100143,252.29811 85.99784,253.17964 100.10014,257.96389 C 113.89066,262.64237 131.01791,271.28588 149.65323,261.84404 C 169.32117,251.879 169.5511,202.83014 149.65323,213.05367 C 130.43199,222.92955 113.9206,222.53844 100.10014,218.00342 C 85.868808,213.33358 69.795278,203.17608 50.304725,213.05367 C 30.100143,223.29313 30.505735,272.56008 50.304725,261.84404 z"
       id="path3503"
       sodipodi:nodetypes="csssssc" />
  </g>
</svg>
